<?xml version="1.0"?>
<svg width="40.667655417" height="20" viewBox="0 0 462 225" xmlns="http://www.w3.org/2000/svg" xmlns:svg="http://www.w3.org/2000/svg">
 <g class="layer">
  <title>Layer 1</title>
  <g id="svg_12"/>
  <g id="svg_13"/>
  <g id="svg_14"/>
  <g id="svg_15"/>
  <g id="svg_16"/>
  <g id="svg_17"/>
  <g id="svg_18"/>
  <g id="svg_19"/>
  <g id="svg_20"/>
  <g id="svg_21"/>
  <g id="svg_22"/>
  <g id="svg_23"/>
  <g id="svg_24"/>
  <g id="svg_25"/>
  <g id="svg_26"/>
  <g id="svg_10">
   <path d="m418.483,14.465l-374.505,0c-16.299,0 -29.511,13.212 -29.511,29.511l0,71.797c0,16.299 13.212,29.511 29.511,29.511l121.636,0l65.617,65.618l65.617,-65.617l121.636,0c16.299,0 29.511,-13.212 29.511,-29.511l0,-71.798c-0.001,-16.299 -13.213,-29.511 -29.512,-29.511z" fill="#CFF09E" id="svg_1"/>
   <g id="svg_2">
    <path d="m231.23,225.368c-3.836,0 -7.515,-1.525 -10.228,-4.237l-61.382,-61.382l-115.644,0c-24.249,0 -43.976,-19.729 -43.976,-43.976l0,-71.797c0,-24.247 19.729,-43.976 43.976,-43.976l374.506,0c24.249,0 43.976,19.729 43.976,43.976l0,71.797c0,24.249 -19.729,43.976 -43.976,43.976l-115.642,0l-61.382,61.382c-2.712,2.713 -6.391,4.237 -10.228,4.237zm-187.254,-196.438c-8.297,0 -15.046,6.749 -15.046,15.046l0,71.797c0,8.297 6.749,15.046 15.046,15.046l121.636,0c3.836,0 7.515,1.525 10.228,4.237l55.389,55.389l55.389,-55.389c2.714,-2.712 6.392,-4.237 10.228,-4.237l121.636,0c8.297,0 15.046,-6.749 15.046,-15.046l0,-71.797c0,-8.297 -6.749,-15.046 -15.046,-15.046l-374.506,0z" fill="#507C5C" id="svg_3"/>
    <path d="m95.307,44.532c13.393,0 23.874,6.211 23.874,22.904l0,25.136c0,16.693 -10.481,22.904 -23.874,22.904l-17.177,0c-3.979,0 -6.6,-2.135 -6.6,-4.561l0,-61.822c0,-2.427 2.621,-4.561 6.6,-4.561l17.177,0zm-8.637,13.199l0,44.545l8.637,0c5.436,0 8.735,-3.104 8.735,-9.705l0,-25.135c0,-6.6 -3.299,-9.705 -8.735,-9.705l-8.637,0z" fill="#507C5C" id="svg_4"/>
    <path d="m128.015,93.153l0,-25.717c0,-16.693 10.386,-22.904 23.777,-22.904s23.874,6.211 23.874,22.904l0,25.717c0,16.693 -10.481,22.904 -23.874,22.904c-13.393,0 -23.777,-6.212 -23.777,-22.904zm32.513,-25.717c0,-6.697 -3.299,-9.705 -8.734,-9.705c-5.436,0 -8.638,3.007 -8.638,9.705l0,25.717c0,6.697 3.203,9.706 8.638,9.706c5.434,0 8.734,-3.009 8.734,-9.706l0,-25.717z" fill="#507C5C" id="svg_5"/>
    <path d="m218.952,111.399l-18.439,-33.579l0,32.996c0,3.106 -3.785,4.659 -7.57,4.659c-3.785,0 -7.57,-1.552 -7.57,-4.659l0,-61.625c0,-3.203 3.784,-4.659 7.57,-4.659c5.434,0 7.473,0.486 11.161,7.57l15.722,29.987l0,-32.996c0,-3.203 3.784,-4.561 7.568,-4.561c3.785,0 7.57,1.358 7.57,4.561l0,61.723c0,3.106 -3.784,4.659 -7.57,4.659c-3.492,0 -6.597,-0.68 -8.442,-4.076z" fill="#507C5C" id="svg_6"/>
    <path d="m240.597,109.264c0,-0.291 0.097,-0.68 0.194,-1.068l18.051,-59.201c1.068,-3.396 5.434,-5.045 9.9,-5.045c4.464,0 8.831,1.65 9.898,5.045l18.149,59.201c0.097,0.389 0.194,0.777 0.194,1.068c0,3.59 -5.531,6.211 -9.705,6.211c-2.427,0 -4.368,-0.777 -4.95,-2.813l-3.299,-12.132l-20.477,0l-3.299,12.132c-0.581,2.037 -2.523,2.813 -4.95,2.813c-4.175,0 -9.706,-2.619 -9.706,-6.211zm35.229,-20.381l-7.083,-26.008l-7.085,26.008l14.168,0z" fill="#507C5C" id="svg_7"/>
    <path d="m338.52,44.532c3.204,0 4.561,3.493 4.561,6.697c0,3.687 -1.649,6.89 -4.561,6.89l-13.393,0l0,52.697c0,3.106 -3.784,4.659 -7.568,4.659c-3.785,0 -7.57,-1.552 -7.57,-4.659l0,-52.697l-13.393,0c-2.912,0 -4.561,-3.203 -4.561,-6.89c0,-3.204 1.357,-6.697 4.561,-6.697l41.924,0z" fill="#507C5C" id="svg_8"/>
    <path d="m364.242,74.131l14.556,0c2.912,0 4.561,2.815 4.561,5.921c0,2.621 -1.358,5.727 -4.561,5.727l-14.556,0l0,16.497l26.008,0c2.912,0 4.561,3.106 4.561,6.697c0,3.104 -1.358,6.502 -4.561,6.502l-34.55,0c-3.299,0 -6.6,-1.552 -6.6,-4.659l0,-61.625c0,-3.106 3.299,-4.659 6.6,-4.659l34.55,0c3.203,0 4.561,3.398 4.561,6.502c0,3.59 -1.65,6.697 -4.561,6.697l-26.008,0l0,16.4z" fill="#507C5C" id="svg_9"/>
   </g>
  </g>
 </g>
</svg>
