<?xml version="1.0"?>
<svg width="34" height="20" viewBox="0 0 135 79" xmlns="http://www.w3.org/2000/svg" xmlns:svg="http://www.w3.org/2000/svg">
 <g class="layer">
  <title>Layer 1</title>
  <rect fill="#00000000" height="74" id="svg_8" stroke="#F0F0F0" stroke-width="5" width="130.000003" x="2.5" y="2.5"/>
  <path d="m32.55118,30.501l-6.839,0c-0.468,0 -0.866,0.34 -0.939,0.802l-2.766,17.537c-0.055,0.346 0.213,0.658 0.564,0.658l3.265,0c0.468,0 0.866,-0.34 0.939,-0.803l0.746,-4.73c0.072,-0.463 0.471,-0.803 0.938,-0.803l2.165,0c4.505,0 7.105,-2.18 7.784,-6.5c0.306,-1.89 0.013,-3.375 -0.872,-4.415c-0.972,-1.142 -2.696,-1.746 -4.985,-1.746zm0.789,6.405c-0.374,2.454 -2.249,2.454 -4.062,2.454l-1.032,0l0.724,-4.583c0.043,-0.277 0.283,-0.481 0.563,-0.481l0.473,0c1.235,0 2.4,0 3.002,0.704c0.359,0.42 0.469,1.044 0.332,1.906z" fill="#253B80" id="svg_1"/>
  <path d="m52.99418,36.827l-3.275,0c-0.279,0 -0.52,0.204 -0.563,0.481l-0.145,0.916l-0.229,-0.332c-0.709,-1.029 -2.29,-1.373 -3.868,-1.373c-3.619,0 -6.71,2.741 -7.312,6.586c-0.313,1.918 0.132,3.752 1.22,5.031c0.998,1.176 2.426,1.666 4.125,1.666c2.916,0 4.533,-1.875 4.533,-1.875l-0.146,0.91c-0.055,0.348 0.213,0.66 0.562,0.66l2.95,0c0.469,0 0.865,-0.34 0.939,-0.803l1.77,-11.209c0.056,-0.345 -0.211,-0.658 -0.561,-0.658zm-4.565,6.374c-0.316,1.871 -1.801,3.127 -3.695,3.127c-0.951,0 -1.711,-0.305 -2.199,-0.883c-0.484,-0.574 -0.668,-1.391 -0.514,-2.301c0.295,-1.855 1.805,-3.152 3.67,-3.152c0.93,0 1.686,0.309 2.184,0.892c0.499,0.589 0.697,1.411 0.554,2.317z" fill="#253B80" id="svg_2"/>
  <path d="m70.43618,36.827l-3.291,0c-0.314,0 -0.609,0.156 -0.787,0.417l-4.539,6.686l-1.924,-6.425c-0.121,-0.402 -0.492,-0.678 -0.912,-0.678l-3.234,0c-0.393,0 -0.666,0.384 -0.541,0.754l3.625,10.638l-3.408,4.811c-0.268,0.379 0.002,0.9 0.465,0.9l3.287,0c0.312,0 0.604,-0.152 0.781,-0.408l10.946,-15.8c0.262,-0.378 -0.007,-0.895 -0.468,-0.895z" fill="#253B80" id="svg_3"/>
  <path d="m81.33218,30.501l-6.84,0c-0.467,0 -0.865,0.34 -0.938,0.802l-2.766,17.537c-0.055,0.346 0.213,0.658 0.562,0.658l3.51,0c0.326,0 0.605,-0.238 0.656,-0.562l0.785,-4.971c0.072,-0.463 0.471,-0.803 0.938,-0.803l2.164,0c4.506,0 7.105,-2.18 7.785,-6.5c0.307,-1.89 0.012,-3.375 -0.873,-4.415c-0.971,-1.142 -2.694,-1.746 -4.983,-1.746zm0.789,6.405c-0.373,2.454 -2.248,2.454 -4.062,2.454l-1.031,0l0.725,-4.583c0.043,-0.277 0.281,-0.481 0.562,-0.481l0.473,0c1.234,0 2.4,0 3.002,0.704c0.359,0.42 0.468,1.044 0.331,1.906z" fill="#179BD7" id="svg_4"/>
  <path d="m101.77418,36.827l-3.273,0c-0.281,0 -0.52,0.204 -0.562,0.481l-0.145,0.916l-0.23,-0.332c-0.709,-1.029 -2.289,-1.373 -3.867,-1.373c-3.619,0 -6.709,2.741 -7.311,6.586c-0.312,1.918 0.131,3.752 1.219,5.031c1,1.176 2.426,1.666 4.125,1.666c2.916,0 4.533,-1.875 4.533,-1.875l-0.146,0.91c-0.055,0.348 0.213,0.66 0.564,0.66l2.949,0c0.467,0 0.865,-0.34 0.938,-0.803l1.771,-11.209c0.054,-0.345 -0.214,-0.658 -0.565,-0.658zm-4.565,6.374c-0.314,1.871 -1.801,3.127 -3.695,3.127c-0.949,0 -1.711,-0.305 -2.199,-0.883c-0.484,-0.574 -0.666,-1.391 -0.514,-2.301c0.297,-1.855 1.805,-3.152 3.67,-3.152c0.93,0 1.686,0.309 2.184,0.892c0.501,0.589 0.699,1.411 0.554,2.317z" fill="#179BD7" id="svg_5"/>
  <path d="m105.63518,30.982l-2.807,17.858c-0.055,0.346 0.213,0.658 0.562,0.658l2.822,0c0.469,0 0.867,-0.34 0.939,-0.803l2.768,-17.536c0.055,-0.346 -0.213,-0.659 -0.562,-0.659l-3.16,0c-0.279,0.001 -0.519,0.205 -0.562,0.482z" fill="#179BD7" id="svg_6"/>
  <text fill="#000000" font-family="Sans-serif" font-size="22" font-weight="bold" id="svg_7" stroke-dasharray="null" stroke-linecap="null" stroke-linejoin="null" stroke-width="0" text-anchor="middle" transform="matrix(1 0 0 1 0 0)" x="88.09018" xml:space="preserve" y="68.65825">EUR</text>
 </g>
</svg>